<?xml version="1.0"?>
<robot xmlns:xacro="http://wiki.ros.org/xacro" name="ur10e_robot">
  <!--
    This is a convenience top-level xacro which loads the macro for the UR10e
    which defines the default values for the various "parameters files"
    parameters for a UR10e.

    This file is only useful when loading a stand-alone, completely isolated
    robot with only default values for all parameters such as the kinematics,
    visual and physical parameters and joint limits.

    This file is not intended to be integrated into a larger scene or other
    composite xacro.

    Instead, xacro:include 'inc/ur10e_macro.xacro' and override the defaults
    for the arguments to that macro.

    Refer to 'inc/ur_macro.xacro' for more information.
  -->
  <xacro:include filename="$(find ur10_pap_description)/urdf/inc/ur10e_macro.xacro"/>
  <xacro:ur10e_robot prefix="" />
  <!--#######################################################################################################################  custom urdfs -->
  <link name="world" />
  <!-- <link name="zed_cam_base_link"/> -->
  <link name="workspace">
    <visual>
        <origin rpy="0 0 0" xyz="0 0 0"/>
        <geometry>
            <mesh filename="package://ur10_pap_description/meshes/210322_workspace.STL" scale="0.001 0.001 0.001"/>
        </geometry>
        <material name="LightGrey">
            <color rgba="0.7 0.7 0.7 1.0"/>
        </material>
    </visual>
    <collision>
        <geometry>
            <mesh filename="package://ur10_pap_description/meshes/210322_workspace.STL" scale="0.001 0.001 0.001"/>
        </geometry>
    </collision>
  </link>
   <link name="stand">
    <visual>
      <geometry>
        <box size="0.06 0.06 0.8"/>
      </geometry>
      <material name="LightGrey">
        <color rgba="0.7 0.7 0.7 1.0"/>
      </material>
    </visual>
    <collision>
      <geometry>
        <box size="0.06 0.06 0.8"/>
      </geometry>
      </collision>
  </link>
  <joint name="world__workspace" type="fixed">
    <parent link="world" />
    <child link = "workspace" />
    <origin xyz="0.0 0.0 0.0" rpy="0.0 0.0 0.0" />
  </joint>
  <joint name="workspace__base_link" type="fixed">
    <parent link="workspace" />
    <child link = "base_link" />
    <origin xyz="0.0 0.0 0.8" rpy="0.0 0.0 0.0" />
  </joint>
  <joint name="world___stand" type="fixed">
    <parent link="world" />
    <child link = "stand" />
    <origin xyz="0.0 0.0 0.4" rpy="0.0 0.0 0.0" />
  </joint> 
  <!--#####################################################################################  camera calibration -->
  <xacro:include filename="$(find rc_visard_description)/urdf/rc_visard_160_pt1.xacro" />
  <joint name="world__camera_mounting" type="fixed">
      <parent link="world" />
      <child link = "pt1_camera" />
      <!-- <origin xyz="0.3978 0.6452 1.9573" rpy="3.07649187 -0.01117011 3.10720967" /> ntu rrc -->
      <origin xyz="0.1602 0.7262 2.0644" rpy="3.12658282 -0.01972222 -0.0005235988" />
  </joint>
  <!-- <origin xyz="-0.572 0.084 1.928" rpy="${pi} 0 ${pi/2}" /> theoritical callibration-->

  <xacro:include filename="$(find rc_visard_description)/urdf/rc_visard_160_wetbay.xacro" />
  <joint name="world__wetbay_camera_mounting" type="fixed">
      <parent link="world" />
      <child link = "wetbay_camera" />
      <origin xyz="0.7330 -0.1816 2.0406" rpy="-3.13618213 -0.00296706 1.5662585" />
  </joint>
  <!-- <origin xyz="0.6 -0.2 1.935" rpy="-3.12327 0.01518 1.5214" /> theoritical callibration-->

  <xacro:include filename="$(find rc_visard_description)/urdf/rc_visard_160_drybay.xacro" />
  <joint name="world__drybay_camera_mounting" type="fixed">
      <parent link="world" />
      <child link = "drybay_camera" /> 
      <!-- <origin xyz="0.0515 -0.5401 2.2583" rpy="3.10755873 0.0008726646 0.0003490659" /> ntu rrc-->
      <origin xyz="0.0586 -0.6453 2.2418" rpy="3.14089452 0.0158825 -0.005061455" />
  </joint>

   <xacro:include filename="$(find rc_visard_description)/urdf/rc_visard_160_pt2.xacro" />
  <joint name="world__pt2_camera_mounting" type="fixed">
      <parent link="world" />
      <child link = "pt2_camera" />
      <!-- <origin xyz="-0.7 -0.2119 1.9919" rpy="3.08801105 0.007853982 1.57" /> -->
      <origin xyz="-0.9621 -0.0352 2.0277" rpy="3.13077161 -0.01134464 1.5753342" />
  </joint>
  <!--#######################################################################################################################  custom urdfs ends -->
</robot>
